MultiTraits_tutorial
…
## 122     Sporobolus interruptus    4       5            3      4,5,3
## 123   Symphyotrichum ascendens    1       1            1      1,1,1
## 124       Taraxacum officinale    8       3            5      8,3,5
## 125        Thalictrum fendleri    3       6            4      3,6,4
## 126         Townsendia exscapa    1       8            3      1,8,3
## 127          Tragopogon dubius    1       2            4      1,2,4
## 128         Trifolium longipes    8       4            2      8,4,2
## 129          Verbena bracteata    1       1            2      1,1,2
## 130          Verbascum thapsus    1       6            6      1,6,6
## 131            Vicia americana    8       7            7      8,7,7
## 132            Vicia pulchella    8       7            7      8,7,7
## 133           Viola canadensis    2       1            5      2,1,5
## 
## $summary
## # A tibble: 99 × 3
##    niche_code species_count species_list                                        
##    <chr>              <int> <chr>                                               
##  1 1,1,1                  3 Eriogonum pharnaceoides, Ipomopsis multiflora, Symp…
##  2 1,1,2                  2 Hymenoxys richardsonii, Verbena bracteata           
##  3 1,1,3                  2 Erigeron formosissimus, Linum australe              
##  4 1,1,4                  1 Ceanothus fendleri                                  
##  5 1,1,5                  5 Agoseris glauca, Arenaria fendleri, Chaetopappa eri…
##  6 1,2,3                  1 Centaurea diffusa                                   
##  7 1,2,4                  4 Ambrosia psilostachya, Bromus ciliatus, Elymus elym…
##  8 1,2,5                  1 Machaeranthera canescens                            
##  9 1,2,6                  4 Artemisia campestris, Artemisia carruthii, Laenneci…
## 10 1,4,2                  1 Gaillardia pinnatifida                              
## # ℹ 89 more rows
…
